## Autogenerated by Scribe. DO NOT MODIFY.

name: Products
description: ''
endpoints:
  -
    httpMethods:
      - GET
    uri: api/v1/products
    metadata:
      groupName: Products
      groupDescription: ''
      subgroup: ''
      subgroupDescription: ''
      title: |-
        Get a paginated list of products.

        This endpoint returns a paginated list of products.
      description: ''
      authenticated: false
      custom: []
    headers:
      Content-Type: application/json
      Accept: application/json
    urlParameters: []
    cleanUrlParameters: []
    queryParameters: []
    cleanQueryParameters: []
    bodyParameters: []
    cleanBodyParameters: []
    fileParameters: []
    responses:
      -
        status: 200
        content: |-
          {
            "data": [
              {
                "id": 1,
                "name": "Product Name",
                "price": 100.00,
                "description": "Product Description",
                "created_at": "2024-09-19T12:34:56.000000Z",
                "updated_at": "2024-09-19T12:34:56.000000Z"
              },
              // more products
            ],
            "links": {
              "first": "http://example.com/products?page=1",
              "last": "http://example.com/products?page=10",
              "prev": null,
              "next": "http://example.com/products?page=2"
            },
            "meta": {
              "current_page": 1,
              "from": 1,
              "last_page": 10,
              "links": [
                // pagination links
              ],
              "next_page_url": "http://example.com/products?page=2",
              "path": "http://example.com/products",
              "per_page": 5,
              "prev_page_url": null,
              "to": 5,
              "total": 50
            }
          }
        headers: []
        description: ''
        custom: []
    responseFields: []
    auth: []
    controller: null
    method: null
    route: null
    custom: []
  -
    httpMethods:
      - GET
    uri: 'api/v1/products/{product_id}'
    metadata:
      groupName: Products
      groupDescription: ''
      subgroup: ''
      subgroupDescription: ''
      title: |-
        Get a single product by ID.

        This endpoint returns the details of a single product.
      description: ''
      authenticated: false
      custom: []
    headers:
      Content-Type: application/json
      Accept: application/json
    urlParameters:
      product_id:
        name: product_id
        description: 'The ID of the product.'
        required: true
        example: 1
        type: integer
        enumValues: []
        exampleWasSpecified: false
        custom: []
    cleanUrlParameters:
      product_id: 1
    queryParameters: []
    cleanQueryParameters: []
    bodyParameters: []
    cleanBodyParameters: []
    fileParameters: []
    responses:
      -
        status: 200
        content: |-
          {
            "data": {
              "id": 1,
              "name": "Product Name",
              "price": 100.00,
              "description": "Product Description",
              "created_at": "2024-09-19T12:34:56.000000Z",
              "updated_at": "2024-09-19T12:34:56.000000Z"
            }
          }
        headers: []
        description: ''
        custom: []
      -
        status: 404
        content: |-
          {
            "error": "Product not found"
          }
        headers: []
        description: ''
        custom: []
    responseFields: []
    auth: []
    controller: null
    method: null
    route: null
    custom: []
